The genius of Rick and Morty - A tidy text analysis
…
library(tidyr)
stop_words <- stop_words %>%
        rbind(data.frame(word = c("xhmikosr", "www.addic7ed.com",
                                  "sync", "corrections"),
                         lexicon = "custom"))
rm_bigrams <- df %>%
  unnest_tokens(bigram, Text, token = "ngrams", n = 2) %>%
  separate(bigram, c("word1", "word2"), sep = " ") %>%
  filter(!word1 %in% stop_words$word) %>%
  filter(!word2 %in% stop_words$word) %>% 
  count(word1, word2, sort = TRUE)

rm_bigrams

## # A tibble: 7,284 x 3
##      word1 word2     n
##      <chr> <chr> <int>
##  1    whoa  whoa    47
##  2    yeah  yeah    34
##  3 grandpa  rick    31
##  4     god  damn    24
##  5    tiny  rick    24
##  6      ha    ha    23
##  7     hey  rick    23
##  8    holy  crap    23
##  9  portal   gun    23
## 10     ice cream    22
## # ... with 7,274 more rows
…
